Chapter 5 dplyr and Pivot Tables | R for Excel Users
…
OK, so this is awesome. We can see the total counts for each site by year, and have this saved here in a nice variable.

We will revisit this in a moment, but now let’s move on to our next dplyr verb.

5.8 mutate()

We use the mutate() function to add columns to a data frame. This is one of the most common things that I do in Excel: you need to name the new column, and then you can fill it with new values. From the help pages, we learn that unlike summarize(), mutate() preserves the number of rows of the input. Additionally, new variables overwrite existing variables of the same name.

Let’s say we need to add a column that indicates that these observations were made by SCUBA diving. To do this, first we tell R we want to add a new column using the mutate() function. Then, we tell it the name of the column we want, let’s call it observation_type. Then, we tell it the value we want in the cells: let’s say "SCUBA". We need to put SCUBA in quotes:

fish_counts %>%
  mutate(observation_type = "SCUBA")

## # A tibble: 45 x 5
##     year site  common_name     total_count observation_type
##    <dbl> <chr> <chr>                 <dbl> <chr>           
##  1  2016 abur  black surfperch           2 SCUBA           
##  2  2016 abur  blacksmith                1 SCUBA           
##  3  2016 abur  garibaldi                 1 SCUBA           
##  4  2016 abur  rock wrasse               2 SCUBA           
##  5  2016 abur  senorita                 58 SCUBA           
##  6  2016 aque  black surfperch           1 SCUBA           
##  7  2016 aque  blacksmith                1 SCUBA           
##  8  2016 aque  garibaldi                 1 SCUBA           
##  9  2016 aque  rock wrasse               1 SCUBA           
## 10  2016 aque  senorita                 57 SCUBA           
## # … with 35 more rows

Notice that when you just give one value like “SCUBA”, mutate will repeat this value for you; it’s the equivalent in Excel to when you grab the bottom right corner of a cell and drag down.

Let’s try a calculation. Let’s calculate the total count for the whole data site as we did above. We add a new column named total_fish:

fish_counts %>%
  mutate(total_fish = sum(total_count))

## # A tibble: 45 x 5
##     year site  common_name     total_count total_fish
##    <dbl> <chr> <chr>                 <dbl>      <dbl>
##  1  2016 abur  black surfperch           2        511
##  2  2016 abur  blacksmith                1        511
##  3  2016 abur  garibaldi                 1        511
##  4  2016 abur  rock wrasse               2        511
##  5  2016 abur  senorita                 58        511
##  6  2016 aque  black surfperch           1        511
##  7  2016 aque  blacksmith                1        511
##  8  2016 aque  garibaldi                 1        511
##  9  2016 aque  rock wrasse               1        511
## 10  2016 aque  senorita                 57        511
## # … with 35 more rows
…
5.8.1 Activity

Take 3 minutes to add a new column to the data frame; discuss with your neighbor for ideas!

5.8.2 group_by() %>% mutate()

So there are many things you could add to a new column; but let’s focus on how powerful mutate can be in combination with group_by. So just like we were just doing group_by() %>% summarize(), we can do group_by() %>% mutate().

Let’s add a new column named siteyear_counts, and we will calculated after grouping by site and year. Let’s have a look at it first, and then we will assign it as a variable in a moment.

fish_counts %>%
  group_by(site, year) %>%
  mutate(siteyear_counts = sum(total_count))

## # A tibble: 45 x 5
## # Groups:   site, year [9]
##     year site  common_name     total_count siteyear_counts
##    <dbl> <chr> <chr>                 <dbl>           <dbl>
##  1  2016 abur  black surfperch           2              64
##  2  2016 abur  blacksmith                1              64
##  3  2016 abur  garibaldi                 1              64
##  4  2016 abur  rock wrasse               2              64
##  5  2016 abur  senorita                 58              64
##  6  2016 aque  black surfperch           1              61
##  7  2016 aque  blacksmith                1              61
##  8  2016 aque  garibaldi                 1              61
##  9  2016 aque  rock wrasse               1              61
## 10  2016 aque  senorita                 57              61
## # … with 35 more rows
…
